DEBUG - eg.edu.alexu.csd.oop.game.object.Hat@57cb7a49  5
DEBUG - eg.edu.alexu.csd.oop.game.object.Hat@5955b375  5
DEBUG - eg.edu.alexu.csd.oop.game.object.Hat@cc99938  5
DEBUG - eg.edu.alexu.csd.oop.game.object.Hat@1c528689  5
DEBUG - eg.edu.alexu.csd.oop.game.object.Hat@cc99938  5
DEBUG - eg.edu.alexu.csd.oop.game.object.Hat@1c528689  5
DEBUG - eg.edu.alexu.csd.oop.game.object.Hat@1c528689  5
DEBUG - eg.edu.alexu.csd.oop.game.object.Hat@57cb7a49  5
DEBUG - eg.edu.alexu.csd.oop.game.object.Hat@402d6d9c  5
DEBUG - eg.edu.alexu.csd.oop.game.object.Hat@1c528689  5
DEBUG - eg.edu.alexu.csd.oop.game.object.Hat@57cb7a49  5
DEBUG - eg.edu.alexu.csd.oop.game.object.Hat@5955b375  5
DEBUG - eg.edu.alexu.csd.oop.game.object.Hat@402d6d9c  5
DEBUG - eg.edu.alexu.csd.oop.game.object.Hat@1c528689  5
DEBUG - eg.edu.alexu.csd.oop.game.object.Hat@402d6d9c  5
DEBUG - eg.edu.alexu.csd.oop.game.object.Hat@5955b375  5
DEBUG - eg.edu.alexu.csd.oop.game.object.Hat@1c528689  5
DEBUG - eg.edu.alexu.csd.oop.game.object.Hat@cc99938  5
DEBUG - eg.edu.alexu.csd.oop.game.object.Hat@cc99938  5
DEBUG - eg.edu.alexu.csd.oop.game.object.Hat@402d6d9c  5
DEBUG - eg.edu.alexu.csd.oop.game.object.Hat@1c528689  5
DEBUG - eg.edu.alexu.csd.oop.game.object.Hat@57cb7a49  5
DEBUG - eg.edu.alexu.csd.oop.game.object.Hat@402d6d9c  5
DEBUG - eg.edu.alexu.csd.oop.game.object.Hat@5955b375  5
DEBUG - eg.edu.alexu.csd.oop.game.object.Hat@1c528689  5
DEBUG - eg.edu.alexu.csd.oop.game.object.Hat@57cb7a49  5
DEBUG - eg.edu.alexu.csd.oop.game.object.Hat@402d6d9c  5
DEBUG - eg.edu.alexu.csd.oop.game.object.Hat@57cb7a49  5
DEBUG - eg.edu.alexu.csd.oop.game.object.Hat@402d6d9c  5
DEBUG - eg.edu.alexu.csd.oop.game.object.Hat@402d6d9c  5
DEBUG - eg.edu.alexu.csd.oop.game.object.Hat@57cb7a49  5
DEBUG - eg.edu.alexu.csd.oop.game.object.Hat@402d6d9c  5
DEBUG - eg.edu.alexu.csd.oop.game.object.Hat@402d6d9c  5
DEBUG - eg.edu.alexu.csd.oop.game.object.Hat@1c528689  5
DEBUG - eg.edu.alexu.csd.oop.game.object.Hat@402d6d9c  5
DEBUG - eg.edu.alexu.csd.oop.game.object.Hat@1c528689  5
